aniso8601==3.0.0
certifi==2018.4.16
chardet==3.0.4
click==6.7
Flask==0.12.2
Flask-RESTful==0.3.6
idna==2.6
itsdangerous==0.24
Jinja2==2.10
json-tricks==3.11.3
lda==1.0.5
MarkupSafe==1.0
nltk==3.2.5
numpy==1.14.2
pbr==4.0.2
pytz==2018.4
requests==2.18.4
scikit-learn==0.19.1
scipy==1.0.1
six==1.11.0
sklearn==0.0
urllib3==1.22
Werkzeug==0.14.1
